<?xml version="1.0" encoding="utf-8"?>
<!-- Generator: Adobe Illustrator 21.1.0, SVG Export Plug-In . SVG Version: 6.00 Build 0)  -->
<svg version="1.1" xmlns="http://www.w3.org/2000/svg" xmlns:xlink="http://www.w3.org/1999/xlink" x="0px" y="0px"
	 viewBox="0 0 70.2 70.1" style="enable-background:new 0 0 70.2 70.1;" xml:space="preserve">
<style type="text/css">
	.st0{display:none;}
	.st1{display:inline;fill:#EC1C24;}
	.st2{display:inline;}
	.st3{fill:#FFFFFF;}
	.st4{fill:#EC1C24;}
	.st5{fill:none;}
	.st6{display:none;fill:#FCFAFA;}
</style>
<g id="Layer_1" class="st0">
	<title>Untitled-1</title>
	<path class="st1" d="M38.1,0.8L38.1,0.8l0.5,0.3l14,7.9L67,17.1v0.1c1.9,0.9,3.1,2.7,3.1,4.8c0,0.1,0,0.2,0,0.3v0.1v32.6V55
		c0,0.2,0,0.3,0,0.5c0,2-1.2,3.8-3,4.7l0,0l-0.5,0.3l-14,7.9l-13.2,7.5V62.2l15-7.9c0.4-0.2,0.7-0.6,0.7-1.1v-4.8l3.9-2.1l0,0
		c0.4-0.2,0.7-0.7,0.7-1.1v-3.9c1.1-0.7,1.4-2.1,0.7-3.2s-2.1-1.4-3.2-0.7s-1.4,2.1-0.7,3.2c0.2,0.3,0.4,0.5,0.7,0.7v3.1l-3.8,2.1
		c-0.4,0.2-0.7,0.7-0.7,1.2v4.7l-5.7,3v-10l0.5-0.3l3.4-1.9l0,0c0.4-0.2,0.7-0.6,0.7-1.1v-5.8l5.4-2.5l0,0c0.5-0.2,0.7-0.7,0.7-1.1
		v-3.8c1.1-0.7,1.4-2.1,0.7-3.2s-2.1-1.4-3.2-0.7s-1.4,2.1-0.7,3.2c0.2,0.3,0.4,0.5,0.7,0.7v0.4v2.6L52,33.5l-0.5,0.2V26
		c1.1-0.7,1.4-2.1,0.7-3.2s-2.1-1.4-3.2-0.7s-1.4,2.1-0.7,3.2c0.2,0.3,0.4,0.5,0.7,0.7v8.1v7.4l-1.1,0.6L45,43.6
		c-0.4,0.2-0.7,0.7-0.7,1.2v10.1v1.9l-3.4,1.8l-1.6,0.8v-7c1.1-0.7,1.4-2.1,0.7-3.2s-2.1-1.4-3.2-0.7s-1.4,2.1-0.7,3.2
		c0.2,0.3,0.4,0.5,0.7,0.7v24.8c-1.4,0.4-2.9,0.3-4.3-0.3V66.6c0,0,0-0.1,0-0.1l0,0v-8.8c0,0,0-0.1,0-0.1l0,0c0,0,0,0,0-0.1V46.2
		l11-5.8c0.4-0.2,0.7-0.7,0.7-1.1l0-16.9c1.1-0.6,1.5-2,0.9-3.2c-0.6-1.1-2-1.5-3.2-0.9s-1.5,2-0.9,3.2c0.2,0.3,0.4,0.6,0.7,0.8v1.4
		v14.9l-9.2,4.8v-7.9l4.5-2.7l0,0c0.4-0.2,0.6-0.6,0.6-1.1V17.4c1.1-0.7,1.4-2.1,0.7-3.2s-2.1-1.4-3.2-0.7s-1.4,2.1-0.7,3.2
		c0.2,0.3,0.4,0.5,0.7,0.7v2.9V31l-2.5,1.5v-4.1c0-0.5-0.2-1-0.7-1.2l-3.6-1.8V13.9c1.1-0.7,1.4-2.1,0.7-3.2s-2.1-1.4-3.2-0.7
		s-1.4,2.1-0.7,3.2c0.2,0.3,0.4,0.5,0.7,0.7v12.3c0,0.5,0.3,0.9,0.7,1.1l0,0l1.8,0.9l1.8,0.9v26.3L30,55.4l-0.2-0.1l-3.9-2.1v-3.5
		V37.8l0,0c0-0.5-0.3-0.9-0.7-1.1l-3.4-1.8l-0.5-0.3v-3.1v-5c1.1-0.7,1.4-2.1,0.7-3.2s-2.1-1.4-3.2-0.7s-1.4,2.1-0.7,3.2
		c0.2,0.3,0.4,0.5,0.7,0.7l-0.1,8.8c0,0.5,0.3,0.9,0.7,1.1l2.8,1.5l1.1,0.6v13.3l-3.4-1.8v-5.8c1.1-0.7,1.4-2.1,0.7-3.2
		s-2.1-1.4-3.2-0.7s-1.4,2.1-0.7,3.2c0.2,0.3,0.4,0.5,0.7,0.7v4.5l-3.1-1.6V33.8c1.1-0.7,1.4-2.1,0.7-3.2s-2.1-1.4-3.2-0.7
		s-1.4,2.1-0.7,3.2c0.2,0.3,0.4,0.5,0.7,0.7v14.1c0,0.5,0.3,0.9,0.7,1.1l5,2.6v8.2c0,0.5,0.3,0.9,0.7,1.1l12.1,6.3v8.2l-12.5-7
		L3.2,60.4l0,0c-1.9-0.9-3.1-2.7-3.1-4.8c0-0.1,0-0.2,0-0.4v-0.1V22.5l0.1-0.1c0-0.2,0-0.3,0-0.5c0-2.1,1.3-4,3.3-4.9l0.3-0.1
		l14-7.9L32,0.9l0,0C33.9-0.2,36.3-0.2,38.1,0.8L38.1,0.8L38.1,0.8z M30.1,58.3L26,56.1l-2-1h-0.1L19.9,53v6.1l10.3,5.4L30.1,58.3
		L30.1,58.3L30.1,58.3z"/>
</g>
<g id="Circle">
	<g id="red" class="st0">
		<g class="st2">
			<path class="st3" d="M35.1,73.8c4.6,0,8.9-0.9,12.9-2.5C41.1,72.4,34.3,73,27.5,73C29.9,73.5,32.5,73.8,35.1,73.8z"/>
			<path class="st3" d="M70.1,38.8c0-19.4-15.7-35-35-35s-35,15.7-35,35c0,16.7,11.7,30.7,27.4,34.2c6.8,0,13.7-0.5,20.5-1.6
				C61,66.2,70.1,53.6,70.1,38.8z"/>
		</g>
		<circle class="st1" cx="35.1" cy="38.8" r="35"/>
	</g>
	<g id="white">
		<circle class="st4" cx="35.4" cy="35" r="35"/>
		<path class="st5" d="M0,69.4c23,6,46,4,69-3v1"/>
	</g>
	<circle class="st6" cx="35.4" cy="35" r="31.4"/>
	<g id="text_2_">
		<rect x="21.6" y="16.6" class="st5" width="28.1" height="31.6"/>
		<path class="st3" d="M42.7,47l-2.1-6.8H30.2L28.1,47h-6.5l10.1-28.7h7.4L49.2,47H42.7z M39.2,35.2c-1.9-6.2-3-9.6-3.2-10.4
			c-0.2-0.8-0.4-1.4-0.5-1.9c-0.4,1.7-1.7,5.8-3.7,12.4H39.2z"/>
	</g>
</g>
</svg>
